<?xml version="1.0" standalone="no"?>
<!DOCTYPE svg PUBLIC "-//W3C//DTD SVG 20010904//EN"
 "http://www.w3.org/TR/2001/REC-SVG-20010904/DTD/svg10.dtd">
<svg version="1.0" xmlns="http://www.w3.org/2000/svg"
 width="397.000000pt" height="166.000000pt" viewBox="0 0 397.000000 166.000000"
 preserveAspectRatio="xMidYMid meet">
<metadata>
Created by potrace 1.13, written by Peter Selinger 2001-2015
</metadata>
<g transform="translate(0.000000,166.000000) scale(0.100000,-0.100000)"
fill="#000000" stroke="none">
<path d="M0 830 l0 -830 1985 0 1985 0 0 830 0 830 -1985 0 -1985 0 0 -830z
m3950 0 l0 -810 -1965 0 -1965 0 0 810 0 810 1965 0 1965 0 0 -810z"/>
<path d="M990 960 c-8 -5 -28 -10 -43 -10 -19 0 -26 -4 -21 -12 5 -7 2 -9 -7
-6 -19 8 -90 -41 -106 -72 -7 -14 -13 -20 -13 -15 0 6 -7 2 -15 -8 -7 -11 -11
-26 -8 -35 4 -9 2 -13 -4 -9 -19 12 -46 -98 -37 -151 4 -26 8 -54 8 -62 1 -8
7 -14 14 -12 12 2 15 -8 13 -43 -2 -17 0 -17 8 -5 10 13 11 13 12 0 1 -8 1
-18 0 -22 0 -5 3 -8 9 -8 5 0 10 -6 10 -14 0 -8 14 -26 31 -40 29 -25 33 -26
55 -11 13 8 29 15 35 15 19 0 -11 -30 -30 -30 -14 -1 -13 -3 3 -15 11 -8 29
-12 42 -9 12 3 25 1 28 -5 4 -6 12 -11 17 -11 6 0 7 5 3 12 -5 7 -3 8 5 3 19
-11 102 -15 96 -4 -8 12 8 12 20 0 11 -11 75 16 75 31 0 5 4 7 8 4 14 -8 85
71 77 85 -5 8 -4 10 3 5 7 -4 12 -5 12 -2 0 2 3 13 6 23 5 15 4 15 -4 3 -9
-12 -13 -9 -21 13 -6 16 -15 25 -21 22 -14 -9 -12 -32 3 -38 6 -2 9 -8 5 -12
-4 -4 -13 -4 -20 1 -9 7 -23 0 -44 -23 -19 -19 -27 -34 -20 -37 6 -3 2 -5 -9
-4 -11 0 -27 -2 -35 -5 -8 -3 -22 -8 -30 -11 -8 -3 2 -4 23 0 l38 5 -20 -20
c-17 -17 -32 -20 -103 -18 -46 0 -88 -2 -95 -6 -6 -4 -14 -3 -18 3 -3 5 1 10
10 10 9 0 13 5 10 10 -4 6 6 11 22 11 l28 1 -25 7 c-39 9 -107 62 -127 98 -9
18 -19 30 -22 28 -2 -3 -10 0 -18 6 -9 8 -13 8 -13 1 0 -6 5 -14 10 -17 6 -4
7 -11 4 -17 -10 -15 -43 69 -44 112 -2 32 -3 33 -10 10 -7 -22 -8 -22 -9 -4
-1 11 6 29 14 40 13 17 14 15 15 -34 0 -29 4 -51 8 -48 5 3 8 18 7 33 -2 18
-1 20 2 6 2 -13 9 -23 14 -23 15 0 10 42 -8 63 -10 11 -13 17 -6 13 8 -4 19
10 33 41 12 27 35 63 52 81 21 20 27 32 17 32 -8 0 -20 -9 -26 -20 -7 -11 -26
-26 -43 -35 -27 -14 -30 -14 -30 0 0 15 11 19 38 16 10 -2 12 4 7 18 -5 17 -3
20 11 14 11 -4 15 -3 11 4 -10 15 14 22 35 11 17 -8 58 8 58 24 0 4 8 5 18 2
15 -5 15 -4 -1 6 -15 9 -22 9 -36 -4 -22 -20 -47 -21 -55 -1 -5 14 -1 16 45
19 9 1 24 8 34 16 10 8 16 10 12 4 -17 -30 113 -35 142 -7 10 11 16 12 19 4 5
-16 22 -14 22 3 0 8 -7 16 -15 20 -8 3 -15 0 -15 -6 0 -7 -4 -7 -12 0 -19 15
-101 23 -118 12z"/>
<path d="M1486 734 c-86 -31 -140 -136 -116 -225 26 -98 107 -155 206 -147
138 12 215 156 153 285 -41 84 -147 122 -243 87z m150 -85 c31 -29 44 -78 34
-125 -19 -81 -107 -119 -174 -74 -32 22 -56 67 -56 103 0 34 31 93 58 110 37
24 105 17 138 -14z"/>
<path d="M2391 743 c-10 -4 -8 -9 10 -20 l24 -14 -24 7 c-17 4 -21 3 -16 -6 4
-6 17 -9 30 -6 13 3 27 2 30 -4 7 -11 -53 -14 -79 -4 -12 5 -13 10 -5 25 13
25 -2 24 -24 -1 -10 -12 -22 -18 -27 -15 -11 7 -12 3 -4 -19 4 -12 11 -13 31
-5 14 5 28 7 31 5 2 -3 -7 -8 -21 -11 -14 -4 -28 -14 -32 -22 -9 -25 1 -27 24
-4 21 21 35 26 105 35 22 3 43 11 48 18 6 10 8 8 8 -4 0 -10 3 -18 6 -18 4 0
13 8 20 18 12 16 13 16 14 0 0 -9 5 -20 11 -24 8 -4 9 0 4 15 -5 16 -2 21 12
21 17 0 18 -10 13 -170 -3 -111 -9 -173 -17 -181 -9 -9 -11 -1 -8 35 2 26 0
44 -5 41 -15 -9 -17 29 -3 46 15 18 8 73 -9 63 -5 -3 -7 -12 -4 -20 7 -17 -14
-65 -25 -58 -4 2 -4 -10 2 -28 5 -18 9 -34 9 -35 0 -1 7 0 15 3 8 4 15 2 15
-4 0 -6 -5 -12 -12 -14 -7 -3 -9 -14 -4 -31 3 -15 11 -25 16 -22 5 3 11 -4 15
-15 9 -27 25 -16 26 18 9 239 8 393 -1 387 -5 -3 -10 -1 -10 4 0 6 -8 11 -17
11 -16 0 -16 -2 -3 -11 12 -9 11 -10 -7 -6 -14 3 -24 -1 -28 -10 -5 -14 -7
-14 -23 -1 -9 9 -28 19 -42 23 l-25 8 25 -22 c26 -24 23 -24 -23 -1 -20 10
-24 16 -15 22 10 6 9 8 -2 7 -8 0 -21 -3 -29 -6z"/>
<path d="M2892 735 c-121 -53 -149 -222 -54 -319 62 -64 170 -72 245 -19 51
35 54 44 21 64 -25 16 -29 15 -62 -7 -44 -30 -100 -31 -136 -3 -15 12 -26 28
-24 36 2 8 57 37 123 65 66 29 121 52 123 54 9 6 -12 53 -36 80 -53 61 -129
80 -200 49z"/>
<path d="M2265 663 c-10 -15 -18 -34 -18 -43 0 -8 -4 -18 -9 -21 -5 -3 -5 -14
-2 -24 6 -16 9 -13 19 15 13 39 36 53 29 18 -4 -21 -4 -21 5 -3 7 14 10 15 10
5 0 -8 -4 -22 -9 -30 -6 -10 -10 -11 -10 -2 0 6 -4 12 -9 12 -10 0 -32 -103
-22 -110 3 -3 11 -15 16 -27 9 -19 11 -20 25 -5 13 14 12 15 -5 9 -20 -7 -20
-7 0 8 18 15 20 15 23 0 2 -8 8 -13 13 -10 5 4 9 2 9 -3 0 -5 -9 -12 -20 -15
-52 -14 3 -53 59 -42 20 4 55 8 79 9 35 2 42 0 37 -12 -5 -12 -3 -13 10 -2 10
9 12 17 6 23 -5 5 -7 15 -4 23 3 9 -8 8 -43 -5 l-48 -19 -36 25 c-21 13 -43
34 -50 48 -8 15 -18 21 -29 17 -14 -5 -14 -3 -3 11 8 9 11 20 8 26 -4 5 -1 21
6 35 9 21 8 31 -2 51 -7 13 -17 22 -22 19 -4 -3 -8 -1 -8 4 0 16 13 22 27 11
8 -7 13 -8 13 -1 0 5 -6 15 -14 21 -11 9 -17 5 -31 -16z"/>
<path d="M2521 330 c-2 -20 -40 -98 -41 -83 0 17 -55 0 -55 -18 0 -7 -8 -15
-17 -17 -10 -2 -18 1 -18 7 0 6 -7 11 -15 11 -8 0 -15 -4 -15 -9 0 -14 60 -25
72 -13 6 6 17 8 25 5 8 -3 19 0 23 7 5 8 10 9 14 2 7 -11 -52 -32 -88 -32 -22
0 -86 40 -86 54 0 5 6 3 14 -3 7 -6 21 -9 30 -5 9 3 22 1 29 -5 10 -8 14 -7
14 3 0 10 -10 13 -34 11 -25 -2 -33 0 -29 10 6 16 -41 62 -51 50 -5 -4 -2 -10
5 -12 14 -6 16 -29 2 -38 -6 -3 -7 1 -4 9 7 19 -12 22 -20 4 -4 -7 -4 -3 -2
10 4 22 -8 30 -19 13 -10 -17 55 -79 100 -97 76 -28 185 3 185 54 0 14 -4 21
-11 17 -6 -4 -8 -13 -5 -21 6 -16 -10 -19 -20 -3 -3 6 0 18 9 26 12 12 19 13
38 2 22 -11 23 -11 10 5 -12 14 -12 16 4 10 15 -6 16 -5 4 15 -15 23 -28 27
-30 9 -1 -7 -5 -2 -9 12 -4 14 -9 18 -9 10z"/>
</g>
</svg>
